sem 2-2/CO/Labs/project/isim.log
ISim log file
Running: D:\Documents\Academics\prosahil\testbench_isim_beh.exe -gui -tclbatch isim.cmd -wdb D:/Documents/Academics/prosahil/testbench_isim_beh.wdb 
ISim M.63c (signature 0x7dea747)
----------------------------------------------------------------------
INFO:Security:51 - The XILINXD_LICENSE_FILE environment variable is not set.
INFO:Security:53 - The LM_LICENSE_FILE environment variable is not set.
INFO:Security:68 - Please run the Xilinx License Configuration Manager
       (xlcm or "Manage Xilinx Licenses")
       to assist in obtaining a license.
WARNING:Security:43 - No license file was found in the standard Xilinx license directory.
WARNING:Security:44 - No license file was found.
       Please run the Xilinx License Configuration Manager
       (xlcm or "Manage Xilinx Licenses")
       to assist in obtaining a license.
ERROR:Security:14 - No feature was available for 'ISIM'.

No such feature exists.
Feature:       ISIM
License path:  C:/.Xilinx;C:\Xilinx\12.2\ISE_DS\ISE\/data\*.lic;C:\Xilinx\12.2\ISE_DS\ISE\/coregen/core_licenses\Xilinx.lic;C:\Xilinx\12.2\ISE_DS\ISE\/coregen/core_licenses\XilinxFree.lic;C:\Xilinx\12.2\ISE_DS\EDK/data/core_licenses\Xilinx.lic;
FLEXnet Licensing error:-5,357
For further information, refer to the FLEXnet Licensing documentation,
available at "www.acresso.com".
----------------------------------------------------------------------
WARNING: A full ISim License cannot be checked out due to the issues listed above. Please use Xilinx License Configuration Manager to fix these issues in order to check out a full ISim license.
WARNING: ISim will run in Lite mode. Please refer to the ISim documentation for more information on the differences between the Lite and the Full version.
This is a Lite version of ISim.
Time resolution is 1 ps
# onerror resume
# wave add /
# run 1000 ns
Simulator is doing circuit initialization process.
Finished circuit initialization process.
                   0  reset =x , pcout =xxxxxxxxxxxxxxxx , tomem =xxxxxxxxxxxxxxxx , toir =xxxxxxxxxxxxxxxx , froma =xxxxxxxxxxxxxxxx  , fromb =xxxxxxxxxxxxxxxx  outreg2=    x,outreg3=    x IR = xxxxxxxxxxxxxxxx regwrite = x ,pcwrite = x, iord = x memwrite = x memread= x, irwrite = x highwrite = x lowwrite = x, highsrc = x, lowsrc = x, nzero = x, andout = x, branch = x
                   1  reset =1 , pcout =xxxxxxxxxxxxxxxx , tomem =xxxxxxxxxxxxxxxx , toir =xxxxxxxxxxxxxxxx , froma =xxxxxxxxxxxxxxxx  , fromb =xxxxxxxxxxxxxxxx  outreg2=    x,outreg3=    x IR = xxxxxxxxxxxxxxxx regwrite = x ,pcwrite = x, iord = x memwrite = x memread= x, irwrite = x highwrite = x lowwrite = x, highsrc = x, lowsrc = x, nzero = x, andout = x, branch = x
                   2  reset =1 , pcout =xxxxxxxxxxxxxxxx , tomem =xxxxxxxxxxxxxxxx , toir =0000000000000000 , froma =xxxxxxxxxxxxxxxx  , fromb =xxxxxxxxxxxxxxxx  outreg2=   20,outreg3=   32 IR = xxxxxxxxxxxxxxxx regwrite = 0 ,pcwrite = 1, iord = 0 memwrite = 0 memread= 0, irwrite = 0 highwrite = 0 lowwrite = 0, highsrc = 0, lowsrc = 0, nzero = 0, andout = 0, branch = 0
                   3  reset =0 , pcout =xxxxxxxxxxxxxxxx , tomem =xxxxxxxxxxxxxxxx , toir =0000000000000000 , froma =xxxxxxxxxxxxxxxx  , fromb =xxxxxxxxxxxxxxxx  outreg2=   20,outreg3=   32 IR = xxxxxxxxxxxxxxxx regwrite = 0 ,pcwrite = 1, iord = 0 memwrite = 0 memread= 0, irwrite = 0 highwrite = 0 lowwrite = 0, highsrc = 0, lowsrc = 0, nzero = 0, andout = 0, branch = 0
                   4  reset =0 , pcout =0000000000000000 , tomem =0000000000000000 , toir =0000010010100000 , froma =xxxxxxxxxxxxxxxx  , fromb =xxxxxxxxxxxxxxxx  outreg2=   20,outreg3=   32 IR = 0000010010100000 regwrite = 0 ,pcwrite = 1, iord = 0 memwrite = 0 memread= 1, irwrite = 1 highwrite = 0 lowwrite = 0, highsrc = 0, lowsrc = 0, nzero = 0, andout = 0, branch = 0
                   6opc = 0000
                   6  reset =0 , pcout =0000000000000010 , tomem =0000000000000010 , toir =0000000000000000 , froma =0000000000010100  , fromb =0000000000001000  outreg2=   20,outreg3=   32 IR = 0000010010100000 regwrite = 0 ,pcwrite = 0, iord = 0 memwrite = 0 memread= 0, irwrite = 0 highwrite = 0 lowwrite = 0, highsrc = 0, lowsrc = 0, nzero = 0, andout = 0, branch = 0
                  10  reset =0 , pcout =0000000000000010 , tomem =0000000000000010 , toir =0000000000000000 , froma =0000000000010100  , fromb =0000000000001000  outreg2=   20,outreg3=   32 IR = 0000010010100000 regwrite = 1 ,pcwrite = 0, iord = 0 memwrite = 0 memread= 0, irwrite = 0 highwrite = 0 lowwrite = 0, highsrc = 0, lowsrc = 0, nzero = 0, andout = 0, branch = 0
                  12  reset =0 , pcout =0000000000000010 , tomem =0000000000000010 , toir =0000101100100000 , froma =0000000000010100  , fromb =0000000000001000  outreg2=   28,outreg3=   32 IR = 0000101100100000 regwrite = 0 ,pcwrite = 1, iord = 0 memwrite = 0 memread= 1, irwrite = 1 highwrite = 0 lowwrite = 0, highsrc = 0, lowsrc = 0, nzero = 0, andout = 0, branch = 0
                  14opc = 0000
                  14 lower aluou = 0000000000000000 souc1 = 0000000000000010 souc2 = 0000000000000010
                  14 lower aluou = 0000000000000000 souc1 = 0000000000000100 souc2 = 0000000000000100
                  14  reset =0 , pcout =0000000000000100 , tomem =0000000000000100 , toir =0000000000000000 , froma =0000000000011100  , fromb =0000000000000001  outreg2=   28,outreg3=   32 IR = 0000101100100000 regwrite = 0 ,pcwrite = 0, iord = 0 memwrite = 0 memread= 0, irwrite = 0 highwrite = 0 lowwrite = 0, highsrc = 0, lowsrc = 0, nzero = 0, andout = 0, branch = 0
                  16  reset =0 , pcout =0000000000000100 , tomem =0000000000000100 , toir =0000000000000000 , froma =0000000000011100  , fromb =0000000000000001  outreg2=   28,outreg3=   32 IR = 0000101100100000 regwrite = 0 ,pcwrite = 0, iord = 0 memwrite = 0 memread= 0, irwrite = 0 highwrite = 0 lowwrite = 0, highsrc = 0, lowsrc = 0, nzero = 1, andout = 0, branch = 0
                  18  reset =0 , pcout =0000000000000100 , tomem =0000000000000100 , toir =0000000000000000 , froma =0000000000011100  , fromb =0000000000000001  outreg2=   28,outreg3=   32 IR = 0000101100100000 regwrite = 1 ,pcwrite = 0, iord = 0 memwrite = 0 memread= 0, irwrite = 0 highwrite = 0 lowwrite = 0, highsrc = 0, lowsrc = 0, nzero = 1, andout = 0, branch = 0
                  20  reset =0 , pcout =0000000000000100 , tomem =0000000000000100 , toir =0000111010100000 , froma =0000000000011100  , fromb =0000000000000001  outreg2=   27,outreg3=   32 IR = 0000111010100000 regwrite = 0 ,pcwrite = 1, iord = 0 memwrite = 0 memread= 1, irwrite = 1 highwrite = 0 lowwrite = 0, highsrc = 0, lowsrc = 0, nzero = 0, andout = 0, branch = 0
                  22opc = 0000
                  22  reset =0 , pcout =0000000000000110 , tomem =0000000000000110 , toir =0000000000000000 , froma =0000000000011011  , fromb =0000000000000101  outreg2=   27,outreg3=   32 IR = 0000111010100000 regwrite = 0 ,pcwrite = 0, iord = 0 memwrite = 0 memread= 0, irwrite = 0 highwrite = 0 lowwrite = 0, highsrc = 0, lowsrc = 0, nzero = 0, andout = 0, branch = 0
                  24  reset =0 , pcout =0000000000000110 , tomem =0000000000000110 , toir =0000000000000000 , froma =0000000000011011  , fromb =0000000000000101  outreg2=   27,outreg3=   32 IR = 0000111010100000 regwrite = 0 ,pcwrite = 0, iord = 0 memwrite = 0 memread= 0, irwrite = 0 highwrite = 1 lowwrite = 1, highsrc = 1, lowsrc = 1, nzero = 0, andout = 0, branch = 0
                  26  reset =0 , pcout =0000000000000110 , tomem =0000000000000110 , toir =1010000010100001 , froma =0000000000011011  , fromb =0000000000000101  outreg2=   27,outreg3=   32 IR = 1010000010100001 regwrite = 0 ,pcwrite = 1, iord = 0 memwrite = 0 memread= 1, irwrite = 1 highwrite = 0 lowwrite = 0, highsrc = 0, lowsrc = 0, nzero = 0, andout = 0, branch = 0
                  28opc = 0001
                  28  reset =0 , pcout =0000000000001000 , tomem =0000000000001000 , toir =0000000000000000 , froma =0000000000011011  , fromb =0000000000001000  outreg2=   27,outreg3=   32 IR = 1010000010100001 regwrite = 1 ,pcwrite = 0, iord = 0 memwrite = 0 memread= 0, irwrite = 0 highwrite = 0 lowwrite = 0, highsrc = 0, lowsrc = 0, nzero = 0, andout = 0, branch = 0
                  30  reset =0 , pcout =0000000000001000 , tomem =0000000000001000 , toir =1010000010110010 , froma =0000000000011011  , fromb =0000000000001000  outreg2=    2,outreg3=   32 IR = 1010000010110010 regwrite = 0 ,pcwrite = 1, iord = 0 memwrite = 0 memread= 1, irwrite = 1 highwrite = 0 lowwrite = 0, highsrc = 0, lowsrc = 0, nzero = 0, andout = 0, branch = 0
                  32opc = 0010
                  32  reset =0 , pcout =0000000000001010 , tomem =0000000000001010 , toir =0000000000000000 , froma =0000000000100000  , fromb =0000000000001000  outreg2=    2,outreg3=   32 IR = 1010000010110010 regwrite = 1 ,pcwrite = 0, iord = 0 memwrite = 0 memread= 0, irwrite = 0 highwrite = 0 lowwrite = 0, highsrc = 0, lowsrc = 0, nzero = 0, andout = 0, branch = 0
                  34  reset =0 , pcout =0000000000001010 , tomem =0000000000001010 , toir =1010000100110011 , froma =0000000000100000  , fromb =0000000000001000  outreg2=    2,outreg3=    5 IR = 1010000100110011 regwrite = 0 ,pcwrite = 1, iord = 0 memwrite = 0 memread= 1, irwrite = 1 highwrite = 0 lowwrite = 0, highsrc = 0, lowsrc = 0, nzero = 0, andout = 0, branch = 0
                  36opc = 0011
                  36  reset =0 , pcout =0000000000001100 , tomem =0000000000001100 , toir =0000000000000000 , froma =0000000000000101  , fromb =0000000000000010  outreg2=    2,outreg3=    5 IR = 1010000100110011 regwrite = 0 ,pcwrite = 0, iord = 0 memwrite = 0 memread= 0, irwrite = 0 highwrite = 1 lowwrite = 1, highsrc = 0, lowsrc = 0, nzero = 0, andout = 0, branch = 0
                  38  reset =0 , pcout =0000000000001100 , tomem =0000000000001100 , toir =0010000010100100 , froma =0000000000000101  , fromb =0000000000000010  outreg2=    2,outreg3=    5 IR = 0010000010100100 regwrite = 0 ,pcwrite = 1, iord = 0 memwrite = 0 memread= 1, irwrite = 1 highwrite = 0 lowwrite = 0, highsrc = 0, lowsrc = 0, nzero = 0, andout = 0, branch = 0
                  40opc = 0100
                  40  reset =0 , pcout =0000000000001110 , tomem =0000000000001110 , toir =0000000000000000 , froma =0000000000000010  , fromb =0000000000001000  outreg2=    2,outreg3=    5 IR = 0010000010100100 regwrite = 0 ,pcwrite = 0, iord = 0 memwrite = 0 memread= 0, irwrite = 0 highwrite = 0 lowwrite = 0, highsrc = 0, lowsrc = 0, nzero = 0, andout = 0, branch = 0
                  44  reset =0 , pcout =0000000000001110 , tomem =0000000000001110 , toir =0000000000000000 , froma =0000000000000010  , fromb =0000000000001000  outreg2=    2,outreg3=    5 IR = 0010000010100100 regwrite = 1 ,pcwrite = 0, iord = 0 memwrite = 0 memread= 0, irwrite = 0 highwrite = 0 lowwrite = 0, highsrc = 0, lowsrc = 0, nzero = 0, andout = 0, branch = 0
                  46  reset =0 , pcout =0000000000001110 , tomem =0000000000001110 , toir =0010000010100101 , froma =0000000000000010  , fromb =0000000000001000  outreg2=   32,outreg3=    5 IR = 0010000010100101 regwrite = 0 ,pcwrite = 1, iord = 0 memwrite = 0 memread= 1, irwrite = 1 highwrite = 0 lowwrite = 0, highsrc = 0, lowsrc = 0, nzero = 0, andout = 0, branch = 0
                  48opc = 0101
                  48  reset =0 , pcout =0000000000010000 , tomem =0000000000010000 , toir =0000000000000000 , froma =0000000000100000  , fromb =0000000000001000  outreg2=   32,outreg3=    5 IR = 0010000010100101 regwrite = 0 ,pcwrite = 0, iord = 0 memwrite = 0 memread= 0, irwrite = 0 highwrite = 0 lowwrite = 0, highsrc = 0, lowsrc = 0, nzero = 0, andout = 0, branch = 0
                  52  reset =0 , pcout =0000000000010000 , tomem =0000000000010000 , toir =0000000000000000 , froma =0000000000100000  , fromb =0000000000001000  outreg2=   32,outreg3=    5 IR = 0010000010100101 regwrite = 1 ,pcwrite = 0, iord = 0 memwrite = 0 memread= 0, irwrite = 0 highwrite = 0 lowwrite = 0, highsrc = 0, lowsrc = 0, nzero = 0, andout = 0, branch = 0
                  54  reset =0 , pcout =0000000000010000 , tomem =0000000000010000 , toir =0010000010100110 , froma =0000000000100000  , fromb =0000000000001000  outreg2=    2,outreg3=    5 IR = 0010000010100110 regwrite = 0 ,pcwrite = 1, iord = 0 memwrite = 0 memread= 1, irwrite = 1 highwrite = 0 lowwrite = 0, highsrc = 0, lowsrc = 0, nzero = 0, andout = 0, branch = 0
                  56opc = 0110
                  56  reset =0 , pcout =0000000000010010 , tomem =0000000000010010 , toir =0000000000000000 , froma =0000000000000010  , fromb =0000000000001000  outreg2=    2,outreg3=    5 IR = 0010000010100110 regwrite = 0 ,pcwrite = 0, iord = 0 memwrite = 0 memread= 0, irwrite = 0 highwrite = 0 lowwrite = 0, highsrc = 0, lowsrc = 0, nzero = 0, andout = 0, branch = 0
                  60  reset =0 , pcout =0000000000010010 , tomem =0000000000010010 , toir =0000000000000000 , froma =0000000000000010  , fromb =0000000000001000  outreg2=    2,outreg3=    5 IR = 0010000010100110 regwrite = 1 ,pcwrite = 0, iord = 0 memwrite = 0 memread= 0, irwrite = 0 highwrite = 0 lowwrite = 0, highsrc = 0, lowsrc = 0, nzero = 0, andout = 0, branch = 0
                  62  reset =0 , pcout =0000000000010010 , tomem =0000000000010010 , toir =0000010110101000 , froma =0000000000000010  , fromb =0000000000001000  outreg2=    2,outreg3=    5 IR = 0000010110101000 regwrite = 0 ,pcwrite = 1, iord = 0 memwrite = 0 memread= 1, irwrite = 1 highwrite = 0 lowwrite = 0, highsrc = 0, lowsrc = 0, nzero = 0, andout = 0, branch = 0
                  64opc = 1000
                  64  reset =0 , pcout =0000000000010100 , tomem =0000000000010100 , toir =0000000000000000 , froma =0000000000000010  , fromb =0000000000000101  outreg2=    2,outreg3=    5 IR = 0000010110101000 regwrite = 0 ,pcwrite = 0, iord = 0 memwrite = 0 memread= 0, irwrite = 0 highwrite = 0 lowwrite = 0, highsrc = 0, lowsrc = 0, nzero = 0, andout = 0, branch = 0
                  68  reset =0 , pcout =0000000000010100 , tomem =0000000000000110 , toir =0000000000000000 , froma =0000000000000010  , fromb =0000000000000101  outreg2=    2,outreg3=    5 IR = 0000010110101000 regwrite = 0 ,pcwrite = 0, iord = 1 memwrite = 1 memread= 0, irwrite = 0 highwrite = 0 lowwrite = 0, highsrc = 0, lowsrc = 0, nzero = 0, andout = 0, branch = 0
                  70  reset =0 , pcout =0000000000010100 , tomem =0000000000010100 , toir =0110010110110111 , froma =0000000000000010  , fromb =0000000000000101  outreg2=    2,outreg3=    5 IR = 0110010110110111 regwrite = 0 ,pcwrite = 1, iord = 0 memwrite = 0 memread= 1, irwrite = 1 highwrite = 0 lowwrite = 0, highsrc = 0, lowsrc = 0, nzero = 0, andout = 0, branch = 0
                  72opc = 0111
                  72  reset =0 , pcout =0000000000010110 , tomem =0000000000010110 , toir =0000000000000000 , froma =0000000000000101  , fromb =0000000000000101  outreg2=    2,outreg3=    5 IR = 0110010110110111 regwrite = 0 ,pcwrite = 0, iord = 0 memwrite = 0 memread= 0, irwrite = 0 highwrite = 0 lowwrite = 0, highsrc = 0, lowsrc = 0, nzero = 0, andout = 0, branch = 0
                  76  reset =0 , pcout =0000000000010110 , tomem =0000000000011110 , toir =0000011100101101 , froma =0000000000000101  , fromb =0000000000000101  outreg2=    2,outreg3=    5 IR = 0110010110110111 regwrite = 0 ,pcwrite = 0, iord = 1 memwrite = 0 memread= 1, irwrite = 0 highwrite = 0 lowwrite = 0, highsrc = 0, lowsrc = 0, nzero = 0, andout = 0, branch = 0
                  78  reset =0 , pcout =0000000000010110 , tomem =0000000000010110 , toir =0000000000000000 , froma =0000000000000101  , fromb =0000000000000101  outreg2=    2,outreg3=    5 IR = 0110010110110111 regwrite = 1 ,pcwrite = 0, iord = 0 memwrite = 0 memread= 0, irwrite = 0 highwrite = 0 lowwrite = 0, highsrc = 0, lowsrc = 0, nzero = 0, andout = 0, branch = 0
                  80  reset =0 , pcout =0000000000010110 , tomem =0000000000010110 , toir =0000110010101001 , froma =0000000000000101  , fromb =0000000000000101  outreg2=    2,outreg3= 1837 IR = 0000110010101001 regwrite = 0 ,pcwrite = 1, iord = 0 memwrite = 0 memread= 1, irwrite = 1 highwrite = 0 lowwrite = 0, highsrc = 0, lowsrc = 0, nzero = 0, andout = 0, branch = 0
                  82opc = 1001
                  82  reset =0 , pcout =0000000000011000 , tomem =0000000000011000 , toir =0000000000000000 , froma =0000000000000010  , fromb =0000000000001000  outreg2=    2,outreg3= 1837 IR = 0000110010101001 regwrite = 0 ,pcwrite = 0, iord = 0 memwrite = 0 memread= 0, irwrite = 0 highwrite = 0 lowwrite = 0, highsrc = 0, lowsrc = 0, nzero = 0, andout = 0, branch = 0
                  84  reset =0 , pcout =0000000000011000 , tomem =0000000000011000 , toir =0000000000000000 , froma =0000000000000010  , fromb =0000000000001000  outreg2=    2,outreg3= 1837 IR = 0000110010101001 regwrite = 0 ,pcwrite = 1, iord = 0 memwrite = 0 memread= 0, irwrite = 0 highwrite = 0 lowwrite = 0, highsrc = 0, lowsrc = 0, nzero = 1, andout = 1, branch = 1
                  86  reset =0 , pcout =0000000000011110 , tomem =0000000000011110 , toir =0000011100101101 , froma =0000000000000010  , fromb =0000000000001000  outreg2=    2,outreg3= 1837 IR = 0000011100101101 regwrite = 0 ,pcwrite = 1, iord = 0 memwrite = 0 memread= 1, irwrite = 1 highwrite = 0 lowwrite = 0, highsrc = 0, lowsrc = 0, nzero = 0, andout = 0, branch = 0
                  88opc = 1101
                  88  reset =0 , pcout =0000000000100000 , tomem =0000000000100000 , toir =0000000000000000 , froma =0000000000000010  , fromb =0000000000000001  outreg2=    2,outreg3= 1837 IR = 0000011100101101 regwrite = 1 ,pcwrite = 1, iord = 0 memwrite = 0 memread= 0, irwrite = 0 highwrite = 0 lowwrite = 0, highsrc = 0, lowsrc = 0, nzero = 0, andout = 0, branch = 0
                  90  reset =0 , pcout =0000000000011100 , tomem =0000000000011100 , toir =0000101111001100 , froma =0000000000000010  , fromb =0000000000000001  outreg2=   32,outreg3= 1837 IR = 0000101111001100 regwrite = 0 ,pcwrite = 1, iord = 0 memwrite = 0 memread= 1, irwrite = 1 highwrite = 0 lowwrite = 0, highsrc = 0, lowsrc = 0, nzero = 0, andout = 0, branch = 0
                  92opc = 1100
                  92  reset =0 , pcout =0000000000011110 , tomem =0000000000011110 , toir =0000000000000000 , froma =0000000000000001  , fromb =0000000000000110  outreg2=   32,outreg3= 1837 IR = 0000101111001100 regwrite = 0 ,pcwrite = 0, iord = 0 memwrite = 0 memread= 0, irwrite = 0 highwrite = 0 lowwrite = 0, highsrc = 0, lowsrc = 0, nzero = 0, andout = 0, branch = 0
                  94  reset =0 , pcout =0000000000011110 , tomem =0000000000011110 , toir =0000000000000000 , froma =0000000000000001  , fromb =0000000000000110  outreg2=   32,outreg3= 1837 IR = 0000101111001100 regwrite = 0 ,pcwrite = 1, iord = 0 memwrite = 0 memread= 0, irwrite = 0 highwrite = 0 lowwrite = 0, highsrc = 0, lowsrc = 0, nzero = 0, andout = 0, branch = 0
                  96  reset =0 , pcout =0000000000011000 , tomem =0000000000011000 , toir =1000000000111010 , froma =0000000000000001  , fromb =0000000000000110  outreg2=   32,outreg3= 1837 IR = 1000000000111010 regwrite = 0 ,pcwrite = 1, iord = 0 memwrite = 0 memread= 1, irwrite = 1 highwrite = 0 lowwrite = 0, highsrc = 0, lowsrc = 0, nzero = 0, andout = 0, branch = 0
                  98opc = 1010
                  98  reset =0 , pcout =0000000000011010 , tomem =0000000000011010 , toir =0000000000000000 , froma =0000011100101101  , fromb =0000000000000111  outreg2=   32,outreg3= 1837 IR = 1000000000111010 regwrite = 1 ,pcwrite = 0, iord = 0 memwrite = 0 memread= 0, irwrite = 0 highwrite = 0 lowwrite = 0, highsrc = 0, lowsrc = 0, nzero = 0, andout = 0, branch = 0
                 100  reset =0 , pcout =0000000000011010 , tomem =0000000000011010 , toir =0000010110101011 , froma =0000011100101101  , fromb =0000000000000111  outreg2=   32,outreg3=32768 IR = 0000010110101011 regwrite = 0 ,pcwrite = 1, iord = 0 memwrite = 0 memread= 1, irwrite = 1 highwrite = 0 lowwrite = 0, highsrc = 0, lowsrc = 0, nzero = 0, andout = 0, branch = 0
                 102opc = 1011
                 102  reset =0 , pcout =0000000000011100 , tomem =0000000000011100 , toir =0000000000000000 , froma =0000000000100000  , fromb =1000000000000000  outreg2=   32,outreg3=32768 IR = 0000010110101011 regwrite = 0 ,pcwrite = 0, iord = 0 memwrite = 0 memread= 0, irwrite = 0 highwrite = 0 lowwrite = 0, highsrc = 0, lowsrc = 0, nzero = 0, andout = 0, branch = 0
                 106  reset =0 , pcout =0000000000011100 , tomem =0000000000011100 , toir =0000000000000000 , froma =0000000000100000  , fromb =1000000000000000  outreg2=   32,outreg3=32768 IR = 0000010110101011 regwrite = 1 ,pcwrite = 0, iord = 0 memwrite = 0 memread= 0, irwrite = 0 highwrite = 0 lowwrite = 0, highsrc = 0, lowsrc = 0, nzero = 0, andout = 0, branch = 0
                 108  reset =0 , pcout =0000000000011100 , tomem =0000000000011100 , toir =0000101111001100 , froma =0000000000100000  , fromb =1000000000000000  outreg2=32769,outreg3=32768 IR = 0000101111001100 regwrite = 0 ,pcwrite = 1, iord = 0 memwrite = 0 memread= 1, irwrite = 1 highwrite = 0 lowwrite = 0, highsrc = 0, lowsrc = 0, nzero = 0, andout = 0, branch = 0
                 110opc = 1100
                 110  reset =0 , pcout =0000000000011110 , tomem =0000000000011110 , toir =0000000000000000 , froma =0000000000000001  , fromb =0000000000000110  outreg2=32769,outreg3=32768 IR = 0000101111001100 regwrite = 0 ,pcwrite = 0, iord = 0 memwrite = 0 memread= 0, irwrite = 0 highwrite = 0 lowwrite = 0, highsrc = 0, lowsrc = 0, nzero = 0, andout = 0, branch = 0
                 112  reset =0 , pcout =0000000000011110 , tomem =0000000000011110 , toir =0000000000000000 , froma =0000000000000001  , fromb =0000000000000110  outreg2=32769,outreg3=32768 IR = 0000101111001100 regwrite = 0 ,pcwrite = 1, iord = 0 memwrite = 0 memread= 0, irwrite = 0 highwrite = 0 lowwrite = 0, highsrc = 0, lowsrc = 0, nzero = 0, andout = 0, branch = 0
                 114  reset =0 , pcout =0000000000011000 , tomem =0000000000011000 , toir =1000000000111010 , froma =0000000000000001  , fromb =0000000000000110  outreg2=32769,outreg3=32768 IR = 1000000000111010 regwrite = 0 ,pcwrite = 1, iord = 0 memwrite = 0 memread= 1, irwrite = 1 highwrite = 0 lowwrite = 0, highsrc = 0, lowsrc = 0, nzero = 0, andout = 0, branch = 0
                 116opc = 1010
                 116  reset =0 , pcout =0000000000011010 , tomem =0000000000011010 , toir =0000000000000000 , froma =1000000000000000  , fromb =0000000000000111  outreg2=32769,outreg3=32768 IR = 1000000000111010 regwrite = 1 ,pcwrite = 0, iord = 0 memwrite = 0 memread= 0, irwrite = 0 highwrite = 0 lowwrite = 0, highsrc = 0, lowsrc = 0, nzero = 0, andout = 0, branch = 0
